model
…
# A tibble: 3,525 × 11
   id         .pred_0 .pred_1 .pred_2 .pred_3  .pred_4  .row  mtry min_n cvdri…¹
   <chr>        <dbl>   <dbl>   <dbl>   <dbl>    <dbl> <int> <int> <int> <fct>  
 1 validation  0.465    0.395  0.0820  0.0464 0.0119       4    13     7 0      
 2 validation  0.589    0.171  0.215   0.0251 0.0005       7    13     7 0      
 3 validation  0.736    0.234  0.0167  0.0109 0.00225      8    13     7 0      
 4 validation  0.256    0.468  0.223   0.0434 0.0101      11    13     7 0      
 5 validation  0.192    0.335  0.300   0.159  0.0131      17    13     7 0      
 6 validation  0.467    0.285  0.121   0.0779 0.0488      18    13     7 0      
 7 validation  0.137    0.493  0.160   0.172  0.0378      32    13     7 0      
 8 validation  0.115    0.211  0.238   0.207  0.229       35    13     7 0      
 9 validation  0.0239   0.534  0.274   0.137  0.0313      37    13     7 0      
10 validation  0.670    0.294  0.0247  0.0113 0.000964    43    13     7 0      
# … with 3,515 more rows, 1 more variable: .config <chr>, and abbreviated
#   variable name ¹​cvdrisk_index_merged

# A tibble: 705 × 5
   .level .threshold specificity sensitivity model        
   <chr>       <dbl>       <dbl>       <dbl> <chr>        
 1 0       -Inf          0             1     Random Forest
 2 0          0.0621     0             1     Random Forest
 3 0          0.0717     0.00962       1     Random Forest
 4 0          0.0748     0.00962       0.973 Random Forest
 5 0          0.0783     0.0192        0.973 Random Forest
 6 0          0.0785     0.0192        0.946 Random Forest
 7 0          0.0795     0.0288        0.946 Random Forest
 8 0          0.0799     0.0385        0.946 Random Forest
 9 0          0.0813     0.0481        0.946 Random Forest
10 0          0.0823     0.0577        0.946 Random Forest
# … with 695 more rows
…
